{
  "provisioners": [{
      "type": "file",
      "source": "playbooks/files/motd.sh",
      "destination": "/tmp/motd.sh"
    },
    {
      "type": "file",
      "source": "playbooks/files/02-landscape-sysinfo",
      "destination": "/tmp/02-landscape-sysinfo"
    },
    {
      "type": "file",
      "source": "playbooks/",
      "destination": "/tmp/"
    },
    {
      "type": "shell",
      "inline": [
        "sudo apt-get update -y",
        "sudo apt-get install -y build-essential python-dev libffi-dev libssl-dev libxml2-dev libxslt1-dev libjpeg8-dev zlib1g-dev",
        "wget https://bootstrap.pypa.io/get-pip.py",
        "sudo python get-pip.py",
        "sudo pip install ansible"
      ]
    },
    {
      "type": "ansible-local",
      "role_paths": [
        "playbooks/users",
        "playbooks/docker"
       ],
       "playbook_dir": "playbooks/",
       "playbook_file": "playbooks/base.yml",
       "host_vars": "playbooks/vars/"
    }
  ],

  "builders": [{
    "type": "amazon-ebs",
    "region": "{{ user `region` }}",
    "source_ami": "{{ user `ubuntu-base`}}",
    "instance_type": "t2.small",
    "ami_name": "ubuntu-{{ user `ubuntu-version`}}-base-{{ timestamp }}",
    "iam_instance_profile": "DevOps",
    "vpc_id": "{{ user `vpc` }}",
    "subnet_id": "{{ user `subnet` }}",
    "security_group_id": "{{ user `security_group` }}",
    "ssh_username": "ubuntu",
    "launch_block_device_mappings": [
        {
          "device_name": "/dev/sda1",
          "volume_size": 20,
          "volume_type": "gp2",
          "delete_on_termination": true
        }
      ]
    }
  ]
}
